{
  "title": "Блестящее качество",
  "description": "Наши клинеры - настоящие мастера своего дела, а используемые нами материалы сертифицированны и безопасны",
  "colors": ["0xFF1E88E5", "0xFFFFFFFF", "0xFFDCE0F2", "0xFFFFFFFF"]
}