{
  "title": "Небывалая доступность",
  "description": "Клининг никогда не был таким доступным. Вы можете заказывать уборку несколько раз в месяц",
  "colors": ["0xFFFFFFFF", "0xFF353433", "0xFF8F8C8A", "0xFFFEB471"]
}